digraph G{
    //"TB", "LR", "BT", "RL",
    rankdir=LR;
    bgcolor="#b9e4ff";

    acdc_ACDC -> acdc_TAInput;
    acdc_ACDC -> acdc_RSFOutput;
    acdc_ACDC -> acdc_Node;
    acdc_ACDC -> acdc_FullOutput;
    acdc_ACDC -> acdc_UpInducer;
    acdc_ACDC -> acdc_DownInducer;
    acdc_ACDC -> acdc_BodyHeader;
    acdc_ACDC -> acdc_SubGraph;
    acdc_ACDC -> acdc_OrphanAdoption;
    acdc_ACDC -> acdc_Pattern;
    acdc_ACDC -> acdc_ClusterLast;
    acdc_ACDC -> acdc_InputHandler;
    acdc_ACDC -> acdc_OutputHandler;
    acdc_ACDC -> acdc_IO;
    acdc_BodyHeader -> acdc_Node;
    acdc_BodyHeader -> acdc_Pattern;
    acdc_BodyHeader -> acdc_IO;
    acdc_ClusterLast -> acdc_Node;
    acdc_ClusterLast -> acdc_Pattern;
    acdc_ClusterLast -> acdc_IO;
    acdc_DownInducer -> acdc_Node;
    acdc_DownInducer -> acdc_Pattern;
    acdc_Edge -> acdc_Node;
    acdc_FullOutput -> acdc_Node;
    acdc_FullOutput -> acdc_Pattern;
    acdc_Node -> acdc_Edge;
    acdc_Node -> acdc_IO;
    acdc_OrphanAdoption -> acdc_Node;
    acdc_OrphanAdoption -> acdc_Pattern;
    acdc_OrphanAdoption -> acdc_IO;
    acdc_OrphanAdoption -> acdc_OrphanAdoption;
    acdc_Pattern -> acdc_Node;
    acdc_Pattern -> acdc_Edge;
    acdc_Pattern -> acdc_IO;
    acdc_RSFOutput -> acdc_Node;
    acdc_RSFOutput -> acdc_OutputHandler;
    acdc_SubGraph -> acdc_Node;
    acdc_SubGraph -> acdc_Sortable;
    acdc_SubGraph -> acdc_Pattern;
    acdc_SubGraph -> acdc_IO;
    acdc_TAInput -> acdc_Node;
    acdc_TAInput -> acdc_Edge;
    acdc_TAInput -> acdc_InputHandler;
    acdc_TAInput -> acdc_IO;
    acdc_UpInducer -> acdc_Node;
    acdc_UpInducer -> acdc_Pattern;
    edu_usc_softarch_arcade_AcdcWithSmellDetection -> edu_usc_softarch_arcade_facts_driver_JavaSourceToDepsBuilder;
    edu_usc_softarch_arcade_AcdcWithSmellDetection -> edu_usc_softarch_arcade_facts_driver_CSourceToDepsBuilder;
    edu_usc_softarch_arcade_AcdcWithSmellDetection -> edu_usc_softarch_arcade_facts_driver_SourceToDepsBuilder;
    edu_usc_softarch_arcade_AcdcWithSmellDetection -> edu_usc_softarch_arcade_config_Config;
    edu_usc_softarch_arcade_AcdcWithSmellDetection -> edu_usc_softarch_arcade_util_FileUtil;
    edu_usc_softarch_arcade_AcdcWithSmellDetection -> acdc_ACDC;
    edu_usc_softarch_arcade_AcdcWithSmellDetection -> edu_usc_softarch_arcade_antipattern_detection_ArchSmellDetector;
    edu_usc_softarch_arcade_MetricsDriver -> mojo_MoJoCalculator;
    edu_usc_softarch_arcade_MetricsDriver -> edu_usc_softarch_arcade_facts_ExpertDecomposition;
    edu_usc_softarch_arcade_MetricsDriver -> edu_usc_softarch_arcade_config_Config;
    edu_usc_softarch_arcade_MetricsDriver -> edu_usc_softarch_arcade_facts_IntraPairFromClustersRsfBuilder;
    edu_usc_softarch_arcade_MetricsDriver -> edu_usc_softarch_arcade_facts_PrecisionRecallCalculator;
    edu_usc_softarch_arcade_MetricsDriver -> edu_usc_softarch_arcade_facts_ExpertDecompositionBuilder;
    edu_usc_softarch_arcade_MetricsDriver -> edu_usc_softarch_arcade_clustering_util_ClusterUtil;
    edu_usc_softarch_arcade_MetricsDriver -> edu_usc_softarch_arcade_facts_driver_RsfReader;
    edu_usc_softarch_arcade_antipattern_detection_ArchSmellDetector -> edu_usc_softarch_arcade_facts_ConcernCluster;
    edu_usc_softarch_arcade_antipattern_detection_ArchSmellDetector -> edu_usc_softarch_arcade_topics_TopicItem;
    edu_usc_softarch_arcade_antipattern_detection_ArchSmellDetector -> edu_usc_softarch_arcade_antipattern_detection_Smell;
    edu_usc_softarch_arcade_antipattern_detection_ArchSmellDetector -> edu_usc_softarch_arcade_antipattern_detection_BdcSmell;
    edu_usc_softarch_arcade_antipattern_detection_ArchSmellDetector -> edu_usc_softarch_arcade_antipattern_detection_BcoSmell;
    edu_usc_softarch_arcade_antipattern_detection_ArchSmellDetector -> edu_usc_softarch_arcade_topics_DocTopics;
    edu_usc_softarch_arcade_antipattern_detection_ArchSmellDetector -> edu_usc_softarch_arcade_antipattern_detection_BuoSmell;
    edu_usc_softarch_arcade_antipattern_detection_ArchSmellDetector -> edu_usc_softarch_arcade_antipattern_detection_SpfSmell;
    edu_usc_softarch_arcade_antipattern_detection_ArchSmellDetector -> edu_usc_softarch_arcade_topics_TopicModelExtractionMethod;
    edu_usc_softarch_arcade_antipattern_detection_ArchSmellDetector -> edu_usc_softarch_arcade_topics_DocTopicItem;
    edu_usc_softarch_arcade_antipattern_detection_ArchSmellDetector -> edu_usc_softarch_arcade_clustering_StringGraph;
    edu_usc_softarch_arcade_antipattern_detection_ArchSmellDetector -> edu_usc_softarch_arcade_config_Config;
    edu_usc_softarch_arcade_antipattern_detection_ArchSmellDetector -> edu_usc_softarch_arcade_facts_driver_ConcernClusterRsf;
    edu_usc_softarch_arcade_antipattern_detection_ArchSmellDetector -> edu_usc_softarch_arcade_clustering_util_ClusterUtil;
    edu_usc_softarch_arcade_antipattern_detection_ArchSmellDetector -> edu_usc_softarch_arcade_antipattern_detection_SmellUtil;
    edu_usc_softarch_arcade_antipattern_detection_ArchSmellDetector -> edu_usc_softarch_arcade_topics_TopicUtil;
    edu_usc_softarch_arcade_antipattern_detection_BcoSmell -> edu_usc_softarch_arcade_antipattern_detection_Smell;
    edu_usc_softarch_arcade_antipattern_detection_BdcSmell -> edu_usc_softarch_arcade_antipattern_detection_Smell;
    edu_usc_softarch_arcade_antipattern_detection_BuoSmell -> edu_usc_softarch_arcade_antipattern_detection_Smell;
    edu_usc_softarch_arcade_antipattern_detection_Smell -> edu_usc_softarch_arcade_facts_ConcernCluster;
    edu_usc_softarch_arcade_antipattern_detection_SmellUtil -> edu_usc_softarch_arcade_antipattern_detection_BcoSmell;
    edu_usc_softarch_arcade_antipattern_detection_SmellUtil -> edu_usc_softarch_arcade_antipattern_detection_SpfSmell;
    edu_usc_softarch_arcade_antipattern_detection_SmellUtil -> edu_usc_softarch_arcade_antipattern_detection_BdcSmell;
    edu_usc_softarch_arcade_antipattern_detection_SmellUtil -> edu_usc_softarch_arcade_antipattern_detection_BuoSmell;
    edu_usc_softarch_arcade_antipattern_detection_SmellUtil -> edu_usc_softarch_arcade_antipattern_detection_Smell;
    edu_usc_softarch_arcade_antipattern_detection_SmellUtil -> edu_usc_softarch_arcade_facts_ConcernCluster;
    edu_usc_softarch_arcade_antipattern_detection_SmellUtil -> edu_usc_softarch_arcade_util_FileUtil;
    edu_usc_softarch_arcade_antipattern_detection_SpfSmell -> edu_usc_softarch_arcade_antipattern_detection_Smell;
    edu_usc_softarch_arcade_callgraph_MethodEdge -> edu_usc_softarch_arcade_callgraph_MyMethod;
    edu_usc_softarch_arcade_callgraph_MyCallGraph -> edu_usc_softarch_arcade_callgraph_MethodEdge;
    edu_usc_softarch_arcade_callgraph_MyCallGraph -> edu_usc_softarch_arcade_callgraph_MyMethod;
    edu_usc_softarch_arcade_callgraph_MyClass -> edu_usc_softarch_arcade_callgraph_MyMethod;
    edu_usc_softarch_arcade_callgraph_MyMethod -> edu_usc_softarch_arcade_callgraph_MyClass;
    edu_usc_softarch_arcade_classgraphs_ClassGraph -> edu_usc_softarch_arcade_classgraphs_SootClassEdge;
    edu_usc_softarch_arcade_classgraphs_ClassGraph -> edu_usc_softarch_arcade_config_Config;
    edu_usc_softarch_arcade_classgraphs_ClassGraph -> edu_usc_softarch_arcade_classgraphs_ArchElemType;
    edu_usc_softarch_arcade_classgraphs_ClassGraphTransformer -> edu_usc_softarch_arcade_clustering_FeatureVectorMap;
    edu_usc_softarch_arcade_classgraphs_ClassGraphTransformer -> edu_usc_softarch_arcade_callgraph_MyMethod;
    edu_usc_softarch_arcade_classgraphs_ClassGraphTransformer -> edu_usc_softarch_arcade_callgraph_MyClass;
    edu_usc_softarch_arcade_classgraphs_ClassGraphTransformer -> edu_usc_softarch_arcade_topics_DocTopics;
    edu_usc_softarch_arcade_classgraphs_ClassGraphTransformer -> edu_usc_softarch_arcade_topics_TopicKeySet;
    edu_usc_softarch_arcade_classgraphs_ClassGraphTransformer -> edu_usc_softarch_arcade_topics_TopicKey;
    edu_usc_softarch_arcade_classgraphs_ClassGraphTransformer -> edu_usc_softarch_arcade_topics_TopicItem;
    edu_usc_softarch_arcade_classgraphs_ClassGraphTransformer -> edu_usc_softarch_arcade_classgraphs_ClassGraph;
    edu_usc_softarch_arcade_classgraphs_ClassGraphTransformer -> edu_usc_softarch_arcade_classgraphs_exception_CannotGetCurrProjStrException;
    edu_usc_softarch_arcade_classgraphs_ClassGraphTransformer -> edu_usc_softarch_arcade_topics_DocTopicItem;
    edu_usc_softarch_arcade_classgraphs_ClassGraphTransformer -> edu_usc_softarch_arcade_callgraph_MethodEdge;
    edu_usc_softarch_arcade_classgraphs_ClassGraphTransformer -> edu_usc_softarch_arcade_callgraph_MyCallGraph;
    edu_usc_softarch_arcade_classgraphs_ClassGraphTransformer -> edu_usc_softarch_arcade_classgraphs_TopicModelData;
    edu_usc_softarch_arcade_classgraphs_ClassGraphTransformer -> edu_usc_softarch_arcade_config_Config;
    edu_usc_softarch_arcade_classgraphs_ClassGraphTransformer -> edu_usc_softarch_arcade_util_DebugUtil;
    edu_usc_softarch_arcade_classgraphs_SootClassEdge -> edu_usc_softarch_arcade_classgraphs_StringEdge;
    edu_usc_softarch_arcade_classgraphs_SootClassEdge -> edu_usc_softarch_arcade_classgraphs_ArchElemType;
    edu_usc_softarch_arcade_classgraphs_StringEdge -> edu_usc_softarch_arcade_classgraphs_ArchElemType;
    edu_usc_softarch_arcade_clustering_Cluster -> edu_usc_softarch_arcade_clustering_UnbiasedEllenbergComparator;
    edu_usc_softarch_arcade_clustering_Cluster -> edu_usc_softarch_arcade_clustering_ConcernComparator;
    edu_usc_softarch_arcade_clustering_Cluster -> edu_usc_softarch_arcade_clustering_FeatureVector;
    edu_usc_softarch_arcade_clustering_Cluster -> edu_usc_softarch_arcade_clustering_Feature;
    edu_usc_softarch_arcade_clustering_Cluster -> edu_usc_softarch_arcade_callgraph_MyClass;
    edu_usc_softarch_arcade_clustering_Cluster -> edu_usc_softarch_arcade_config_Config;
    edu_usc_softarch_arcade_clustering_Cluster -> edu_usc_softarch_arcade_clustering_ClusteringAlgorithmType;
    edu_usc_softarch_arcade_clustering_Cluster -> edu_usc_softarch_arcade_clustering_SimCalcUtil;
    edu_usc_softarch_arcade_clustering_Cluster -> edu_usc_softarch_arcade_util_ExtractionContext;
    edu_usc_softarch_arcade_clustering_Cluster -> edu_usc_softarch_arcade_classgraphs_StringEdge;
    edu_usc_softarch_arcade_clustering_Cluster -> edu_usc_softarch_arcade_topics_TopicUtil;
    edu_usc_softarch_arcade_clustering_Cluster -> edu_usc_softarch_arcade_topics_DocTopics;
    edu_usc_softarch_arcade_clustering_Cluster -> edu_usc_softarch_arcade_topics_DocTopicItem;
    edu_usc_softarch_arcade_clustering_ConcernComparator -> edu_usc_softarch_arcade_clustering_Cluster;
    edu_usc_softarch_arcade_clustering_ConcernComparator -> edu_usc_softarch_arcade_clustering_SimMeasureComparator;
    edu_usc_softarch_arcade_clustering_ConcernComparator -> edu_usc_softarch_arcade_util_ExtractionContext;
    edu_usc_softarch_arcade_clustering_ConcernComparator -> edu_usc_softarch_arcade_clustering_SimCalcUtil;
    edu_usc_softarch_arcade_clustering_ConcernComparator -> edu_usc_softarch_arcade_topics_DocTopicItem;
    edu_usc_softarch_arcade_clustering_ConcernComparator -> edu_usc_softarch_arcade_clustering_FeatureVector;
    edu_usc_softarch_arcade_clustering_Entity -> edu_usc_softarch_arcade_topics_DocTopicItem;
    edu_usc_softarch_arcade_clustering_FastCluster -> edu_usc_softarch_arcade_topics_DocTopicItem;
    edu_usc_softarch_arcade_clustering_FastCluster -> edu_usc_softarch_arcade_clustering_ClusteringAlgorithmType;
    edu_usc_softarch_arcade_clustering_Feature -> edu_usc_softarch_arcade_classgraphs_StringEdge;
    edu_usc_softarch_arcade_clustering_FeatureVector -> edu_usc_softarch_arcade_clustering_Feature;
    edu_usc_softarch_arcade_clustering_FeatureVector -> edu_usc_softarch_arcade_topics_DocTopicItem;
    edu_usc_softarch_arcade_clustering_FeatureVector -> edu_usc_softarch_arcade_classgraphs_StringEdge;
    edu_usc_softarch_arcade_clustering_FeatureVectorMap -> edu_usc_softarch_arcade_clustering_FastFeatureVectors;
    edu_usc_softarch_arcade_clustering_FeatureVectorMap -> edu_usc_softarch_arcade_clustering_FeatureVector;
    edu_usc_softarch_arcade_clustering_FeatureVectorMap -> edu_usc_softarch_arcade_clustering_Feature;
    edu_usc_softarch_arcade_clustering_FeatureVectorMap -> edu_usc_softarch_arcade_classgraphs_SootClassEdge;
    edu_usc_softarch_arcade_clustering_FeatureVectorMap -> edu_usc_softarch_arcade_classgraphs_StringEdge;
    edu_usc_softarch_arcade_clustering_FeatureVectorMap -> edu_usc_softarch_arcade_classgraphs_ClassGraph;
    edu_usc_softarch_arcade_clustering_FeatureVectorMap -> edu_usc_softarch_arcade_functiongraph_TypedEdgeGraph;
    edu_usc_softarch_arcade_clustering_FeatureVectorMap -> edu_usc_softarch_arcade_config_Config;
    edu_usc_softarch_arcade_clustering_FeatureVectorMap -> edu_usc_softarch_arcade_facts_driver_RsfReader;
    edu_usc_softarch_arcade_clustering_FeatureVectorMap -> edu_usc_softarch_arcade_functiongraph_StringTypedEdge;
    edu_usc_softarch_arcade_clustering_SimCalcUtil -> edu_usc_softarch_arcade_clustering_Feature;
    edu_usc_softarch_arcade_clustering_SimCalcUtil -> edu_usc_softarch_arcade_clustering_Cluster;
    edu_usc_softarch_arcade_clustering_SimCalcUtil -> edu_usc_softarch_arcade_clustering_FeatureVector;
    edu_usc_softarch_arcade_clustering_SimCalcUtil -> edu_usc_softarch_arcade_clustering_FastCluster;
    edu_usc_softarch_arcade_clustering_SimCalcUtil -> edu_usc_softarch_arcade_clustering_Entity;
    edu_usc_softarch_arcade_clustering_SimCalcUtil -> edu_usc_softarch_arcade_clustering_WCACluster;
    edu_usc_softarch_arcade_clustering_SimCalcUtil -> edu_usc_softarch_arcade_classgraphs_StringEdge;
    edu_usc_softarch_arcade_clustering_SimCalcUtil -> edu_usc_softarch_arcade_topics_TopicUtil;
    edu_usc_softarch_arcade_clustering_SimCalcUtil -> edu_usc_softarch_arcade_config_ConfigUtil;
    edu_usc_softarch_arcade_clustering_SimCalcUtil -> edu_usc_softarch_arcade_topics_DocTopicItem;
    edu_usc_softarch_arcade_clustering_SimMeasureComparator -> edu_usc_softarch_arcade_clustering_Cluster;
    edu_usc_softarch_arcade_clustering_StringGraph -> edu_usc_softarch_arcade_classgraphs_StringEdge;
    edu_usc_softarch_arcade_clustering_StringGraph -> edu_usc_softarch_arcade_config_Config;
    edu_usc_softarch_arcade_clustering_UnbiasedEllenbergComparator -> edu_usc_softarch_arcade_clustering_Cluster;
    edu_usc_softarch_arcade_clustering_UnbiasedEllenbergComparator -> edu_usc_softarch_arcade_clustering_SimMeasureComparator;
    edu_usc_softarch_arcade_clustering_UnbiasedEllenbergComparator -> edu_usc_softarch_arcade_util_ExtractionContext;
    edu_usc_softarch_arcade_clustering_UnbiasedEllenbergComparator -> edu_usc_softarch_arcade_clustering_SimCalcUtil;
    edu_usc_softarch_arcade_clustering_UnbiasedEllenbergComparator -> edu_usc_softarch_arcade_clustering_FeatureVector;
    edu_usc_softarch_arcade_clustering_WCACluster -> edu_usc_softarch_arcade_clustering_Cluster;
    edu_usc_softarch_arcade_clustering_WCACluster -> edu_usc_softarch_arcade_clustering_FeatureVector;
    edu_usc_softarch_arcade_clustering_util_ClusterUtil -> edu_usc_softarch_arcade_clustering_Cluster;
    edu_usc_softarch_arcade_clustering_util_ClusterUtil -> edu_usc_softarch_arcade_clustering_FeatureVector;
    edu_usc_softarch_arcade_clustering_util_ClusterUtil -> edu_usc_softarch_arcade_clustering_FastCluster;
    edu_usc_softarch_arcade_clustering_util_ClusterUtil -> edu_usc_softarch_arcade_clustering_StringGraph;
    edu_usc_softarch_arcade_clustering_util_ClusterUtil -> edu_usc_softarch_arcade_clustering_Feature;
    edu_usc_softarch_arcade_clustering_util_ClusterUtil -> edu_usc_softarch_arcade_classgraphs_StringEdge;
    edu_usc_softarch_arcade_clustering_util_ClusterUtil -> edu_usc_softarch_arcade_smellarchgraph_SmellArchGraph;
    edu_usc_softarch_arcade_clustering_util_ClusterUtil -> edu_usc_softarch_arcade_smellarchgraph_ClusterEdge;
    edu_usc_softarch_arcade_clustering_util_ClusterUtil -> edu_usc_softarch_arcade_topics_TopicItem;
    edu_usc_softarch_arcade_clustering_util_ClusterUtil -> edu_usc_softarch_arcade_topics_TopicKey;
    edu_usc_softarch_arcade_clustering_util_ClusterUtil -> edu_usc_softarch_arcade_callgraph_MyClass;
    edu_usc_softarch_arcade_clustering_util_ClusterUtil -> edu_usc_softarch_arcade_callgraph_MyMethod;
    edu_usc_softarch_arcade_clustering_util_ClusterUtil -> edu_usc_softarch_arcade_topics_DocTopicItem;
    edu_usc_softarch_arcade_clustering_util_ClusterUtil -> edu_usc_softarch_arcade_clustering_FastFeatureVectors;
    edu_usc_softarch_arcade_clustering_util_ClusterUtil -> edu_usc_softarch_arcade_facts_ConcernCluster;
    edu_usc_softarch_arcade_clustering_util_ClusterUtil -> edu_usc_softarch_extractors_cda_odem_Type;
    edu_usc_softarch_arcade_clustering_util_ClusterUtil -> edu_usc_softarch_extractors_cda_odem_DependsOn;
    edu_usc_softarch_arcade_clustering_util_ClusterUtil -> edu_usc_softarch_arcade_facts_Group;
    edu_usc_softarch_arcade_clustering_util_ClusterUtil -> edu_usc_softarch_extractors_cda_odem_Dependencies;
    edu_usc_softarch_arcade_clustering_util_ClusterUtil -> edu_usc_softarch_arcade_facts_ExpertDecomposition;
    edu_usc_softarch_arcade_clustering_util_ClusterUtil -> edu_usc_softarch_arcade_config_Config;
    edu_usc_softarch_arcade_clustering_util_ClusterUtil -> edu_usc_softarch_arcade_config_ConfigUtil;
    edu_usc_softarch_arcade_clustering_util_ClusterUtil -> edu_usc_softarch_arcade_topics_TopicUtil;
    edu_usc_softarch_arcade_clustering_util_ClusterUtil -> edu_usc_softarch_arcade_topics_TopicKeySet;
    edu_usc_softarch_arcade_clustering_util_ClusterUtil -> edu_usc_softarch_arcade_util_DebugUtil;
    edu_usc_softarch_arcade_clustering_util_ClusterUtil -> edu_usc_softarch_arcade_facts_driver_RsfReader;
    edu_usc_softarch_arcade_config_Config -> org_kohsuke_pdc_ClasspathBuilder;
    edu_usc_softarch_arcade_config_Config -> edu_usc_softarch_arcade_config_JarFileFilter;
    edu_usc_softarch_arcade_config_Config -> edu_usc_softarch_arcade_clustering_ClusteringAlgorithmType;
    edu_usc_softarch_arcade_config_Config -> edu_usc_softarch_arcade_topics_TopicModelExtractionMethod;
    edu_usc_softarch_arcade_config_Config -> edu_usc_softarch_arcade_config_datatypes_RunType;
    edu_usc_softarch_arcade_config_Config -> edu_usc_softarch_arcade_config_datatypes_Proj;
    edu_usc_softarch_arcade_config_Config -> edu_usc_softarch_arcade_classgraphs_ClassGraphTransformer;
    edu_usc_softarch_arcade_config_Config -> edu_usc_softarch_arcade_util_FileUtil;
    edu_usc_softarch_arcade_config_Config -> org_kohsuke_pdc_ParseDotClasspath;
    edu_usc_softarch_arcade_config_Config -> edu_usc_softarch_arcade_weka_ClassValueMap;
    edu_usc_softarch_arcade_config_Config -> edu_usc_softarch_arcade_classgraphs_TopicModelData;
    edu_usc_softarch_arcade_config_ConfigUtil -> edu_usc_softarch_arcade_clustering_FeatureVector;
    edu_usc_softarch_arcade_config_ConfigUtil -> edu_usc_softarch_arcade_clustering_Entity;
    edu_usc_softarch_arcade_facts_ConcernCluster -> edu_usc_softarch_arcade_topics_DocTopicItem;
    edu_usc_softarch_arcade_facts_ExpertDecomposition -> edu_usc_softarch_arcade_facts_Group;
    edu_usc_softarch_arcade_facts_ExpertDecompositionBuilder -> edu_usc_softarch_arcade_facts_ExpertDecomposition;
    edu_usc_softarch_arcade_facts_ExpertDecompositionBuilder -> edu_usc_softarch_arcade_facts_Group;
    edu_usc_softarch_arcade_facts_ExpertDecompositionBuilder -> edu_usc_softarch_arcade_topics_DocTopicItem;
    edu_usc_softarch_arcade_facts_ExpertDecompositionBuilder -> edu_usc_softarch_arcade_config_Config;
    edu_usc_softarch_arcade_facts_ExpertDecompositionBuilder -> edu_usc_softarch_arcade_facts_driver_RsfReader;
    edu_usc_softarch_arcade_facts_ExpertDecompositionBuilder -> edu_usc_softarch_arcade_topics_TopicUtil;
    edu_usc_softarch_arcade_facts_ExpertDecompositionBuilder -> edu_usc_softarch_arcade_topics_DocTopics;
    edu_usc_softarch_arcade_facts_Group -> edu_usc_softarch_arcade_topics_DocTopicItem;
    edu_usc_softarch_arcade_facts_IntraPairFromClustersRsfBuilder -> edu_usc_softarch_arcade_facts_driver_RsfReader;
    edu_usc_softarch_arcade_facts_driver_CSourceToDepsBuilder -> edu_usc_softarch_arcade_functiongraph_TypedEdgeGraph;
    edu_usc_softarch_arcade_facts_driver_CSourceToDepsBuilder -> edu_usc_softarch_arcade_clustering_FeatureVectorMap;
    edu_usc_softarch_arcade_facts_driver_CSourceToDepsBuilder -> edu_usc_softarch_arcade_facts_driver_SourceToDepsBuilder;
    edu_usc_softarch_arcade_facts_driver_CSourceToDepsBuilder -> edu_usc_softarch_arcade_clustering_FastFeatureVectors;
    edu_usc_softarch_arcade_facts_driver_CSourceToDepsBuilder -> edu_usc_softarch_arcade_config_Config;
    edu_usc_softarch_arcade_facts_driver_CSourceToDepsBuilder -> edu_usc_softarch_arcade_util_FileUtil;
    edu_usc_softarch_arcade_facts_driver_CSourceToDepsBuilder -> edu_usc_softarch_arcade_facts_driver_MakeDepReader;
    edu_usc_softarch_arcade_facts_driver_CSourceToDepsBuilder -> edu_usc_softarch_arcade_facts_driver_RsfReader;
    edu_usc_softarch_arcade_facts_driver_ConcernClusterRsf -> edu_usc_softarch_arcade_facts_ConcernCluster;
    edu_usc_softarch_arcade_facts_driver_ConcernClusterRsf -> edu_usc_softarch_arcade_facts_driver_RsfReader;
    edu_usc_softarch_arcade_facts_driver_JavaSourceToDepsBuilder -> edu_usc_softarch_arcade_functiongraph_TypedEdgeGraph;
    edu_usc_softarch_arcade_facts_driver_JavaSourceToDepsBuilder -> edu_usc_softarch_arcade_clustering_FeatureVectorMap;
    edu_usc_softarch_arcade_facts_driver_JavaSourceToDepsBuilder -> edu_usc_softarch_arcade_facts_driver_SourceToDepsBuilder;
    edu_usc_softarch_arcade_facts_driver_JavaSourceToDepsBuilder -> edu_usc_softarch_arcade_clustering_FastFeatureVectors;
    edu_usc_softarch_arcade_facts_driver_JavaSourceToDepsBuilder -> edu_usc_softarch_arcade_config_Config;
    edu_usc_softarch_arcade_facts_driver_JavaSourceToDepsBuilder -> edu_usc_softarch_arcade_util_FileUtil;
    edu_usc_softarch_arcade_facts_driver_MakeDepReader -> edu_usc_softarch_arcade_config_Config;
    edu_usc_softarch_arcade_facts_driver_RsfReader -> edu_usc_softarch_arcade_util_StopWatch;
    edu_usc_softarch_arcade_facts_driver_RsfReader -> edu_usc_softarch_arcade_clustering_FeatureVectorMap;
    edu_usc_softarch_arcade_facts_driver_RsfReader -> edu_usc_softarch_arcade_functiongraph_TypedEdgeGraph;
    edu_usc_softarch_arcade_facts_driver_RsfReader -> edu_usc_softarch_arcade_config_Config;
    edu_usc_softarch_arcade_facts_driver_SourceToDepsBuilder -> edu_usc_softarch_arcade_clustering_FastFeatureVectors;
    edu_usc_softarch_arcade_functiongraph_StringTypedEdge -> edu_usc_softarch_arcade_classgraphs_StringEdge;
    edu_usc_softarch_arcade_functiongraph_TypedEdgeGraph -> edu_usc_softarch_arcade_functiongraph_StringTypedEdge;
    edu_usc_softarch_arcade_smellarchgraph_ClusterEdge -> edu_usc_softarch_arcade_clustering_Cluster;
    edu_usc_softarch_arcade_smellarchgraph_SmellArchGraph -> edu_usc_softarch_arcade_smellarchgraph_ClusterEdge;
    edu_usc_softarch_arcade_smellarchgraph_SmellArchGraph -> edu_usc_softarch_arcade_clustering_Cluster;
    edu_usc_softarch_arcade_topics_DocTopicItem -> edu_usc_softarch_arcade_topics_TopicItem;
    edu_usc_softarch_arcade_topics_DocTopicItem -> edu_usc_softarch_arcade_topics_TopicItemByTopicNumComparator;
    edu_usc_softarch_arcade_topics_DocTopicItem -> edu_usc_softarch_arcade_topics_TopicItemByTopicPropComparator;
    edu_usc_softarch_arcade_topics_DocTopics -> edu_usc_softarch_arcade_topics_DocTopicItem;
    edu_usc_softarch_arcade_topics_DocTopics -> edu_usc_softarch_arcade_topics_CamelCaseSeparatorPipe;
    edu_usc_softarch_arcade_topics_DocTopics -> edu_usc_softarch_arcade_topics_StemmerPipe;
    edu_usc_softarch_arcade_topics_DocTopics -> edu_usc_softarch_arcade_topics_TopicItem;
    edu_usc_softarch_arcade_topics_DocTopics -> edu_usc_softarch_arcade_config_Config;
    edu_usc_softarch_arcade_topics_DocTopics -> edu_usc_softarch_arcade_util_FileListing;
    edu_usc_softarch_arcade_topics_DocTopics -> edu_usc_softarch_arcade_util_FileUtil;
    edu_usc_softarch_arcade_topics_StemmerPipe -> org_tartarus_snowball_ext_englishStemmer;
    edu_usc_softarch_arcade_topics_StemmerPipe -> org_tartarus_snowball_SnowballStemmer;
    edu_usc_softarch_arcade_topics_TopicItemByTopicNumComparator -> edu_usc_softarch_arcade_topics_TopicItem;
    edu_usc_softarch_arcade_topics_TopicItemByTopicPropComparator -> edu_usc_softarch_arcade_topics_TopicItem;
    edu_usc_softarch_arcade_topics_TopicKeySet -> edu_usc_softarch_arcade_topics_TopicKey;
    edu_usc_softarch_arcade_topics_TopicUtil -> edu_usc_softarch_arcade_topics_TopicItem;
    edu_usc_softarch_arcade_topics_TopicUtil -> edu_usc_softarch_arcade_topics_TopicKey;
    edu_usc_softarch_arcade_topics_TopicUtil -> edu_usc_softarch_arcade_topics_TopicKeySet;
    edu_usc_softarch_arcade_topics_TopicUtil -> edu_usc_softarch_arcade_topics_WordTopicCounts;
    edu_usc_softarch_arcade_topics_TopicUtil -> edu_usc_softarch_arcade_topics_DocTopics;
    edu_usc_softarch_arcade_topics_TopicUtil -> edu_usc_softarch_arcade_topics_DocTopicItem;
    edu_usc_softarch_arcade_topics_TopicUtil -> edu_usc_softarch_arcade_topics_TopicItemByTopicNumComparator;
    edu_usc_softarch_arcade_topics_TopicUtil -> edu_usc_softarch_arcade_clustering_Cluster;
    edu_usc_softarch_arcade_topics_TopicUtil -> edu_usc_softarch_arcade_clustering_Entity;
    edu_usc_softarch_arcade_topics_TopicUtil -> edu_usc_softarch_arcade_clustering_FastCluster;
    edu_usc_softarch_arcade_topics_TopicUtil -> edu_usc_softarch_arcade_config_Config;
    edu_usc_softarch_arcade_topics_TopicUtil -> edu_usc_softarch_arcade_config_ConfigUtil;
    edu_usc_softarch_arcade_topics_TopicUtil -> edu_usc_softarch_arcade_util_DebugUtil;
    edu_usc_softarch_arcade_topics_TopicUtil -> edu_usc_softarch_arcade_clustering_FeatureVector;
    edu_usc_softarch_arcade_topics_WordTopicCounts -> edu_usc_softarch_arcade_topics_WordTopicItem;
    edu_usc_softarch_extractors_cda_odem_Dependencies -> edu_usc_softarch_extractors_cda_odem_DependsOn;
    edu_usc_softarch_extractors_cda_odem_Type -> edu_usc_softarch_extractors_cda_odem_Dependencies;
    mojo_BipartiteGraph -> mojo_Vertex;
    mojo_MoJoCalculator -> mojo_Cluster;
    mojo_MoJoCalculator -> mojo_BipartiteGraph;
    mojo_MoJoCalculator -> mojo_Vertex;
    org_kohsuke_pdc_ParseDotClasspath -> org_kohsuke_pdc_ClasspathBuilder;
    org_tartarus_snowball_Among -> org_tartarus_snowball_SnowballProgram;
    org_tartarus_snowball_SnowballProgram -> org_tartarus_snowball_Among;
    org_tartarus_snowball_SnowballStemmer -> org_tartarus_snowball_SnowballProgram;
    org_tartarus_snowball_ext_englishStemmer -> org_tartarus_snowball_Among;
    org_tartarus_snowball_ext_englishStemmer -> org_tartarus_snowball_SnowballStemmer;
    org_tartarus_snowball_ext_englishStemmer -> org_tartarus_snowball_SnowballProgram;

    //label must be at the end to avoid applying to subgraphs
    label="Sample Diagram";
    fontsize=40;
    labelloc=top;
}
